{
    "priorityGroup": [
	    "Người làm việc trong các cơ sở y tế, ngành y tế (công lập và tư nhân)",
	    "Người tham gia phòng chống dịch (Thành viên Ban chỉ đạo phòng, chống dịch các cấp, người làm việc ở các khu cách ly, làm nhiệm vụ truy vết, điều tra dịch tễ, tổ Covid dựa vào cộng đồng, tình nguyện viên, phóng viên...)",
	    "Lực lượng Quân đội",
	    "Lực lượng Công an",
	    "Nhân viên, cán bộ ngoại giao của Việt Nam và thân nhân được cử đi nước ngoài; người làm việc trong các cơ quan Ngoại giao, Lãnh sự, các tổ chức quốc tế hoạt động tại Việt Nam",
	    "Hải quan, cán bộ làm công tác xuất nhập cảnh",
	    "Người cung cấp dịch vụ thiết yếu: hàng không, vận tải, du lịch; cung cấp dịch vụ điện, nước",
	    "Giáo viên, người làm việc, học sinh, sinh viên tại các cơ sở giáo dục, đào tạo; lực lượng bác sỹ trẻ; người làm việc tại các cơ quan, đơn vị hành chính; các tổ chức hành nghề luật sư, công chứng, đấu giá... thường xuyên tiếp xúc với nhiều người",
	    "Người mắc các bệnh mạn tính; Người trên 65 tuổi",
	    "Người sinh sống tại các vùng có dịch",
	    "Người nghèo, các đối tượng chính sách xã hội",
	    "Người được cơ quan nhà nước có thẩm quyền cử đi công tác, học tập, lao động ở nước ngoài hoặc có nhu cầu xuất cảnh để công tác, học tập và lao động ở nước ngoài; chuyên gia nước ngoài làm việc tại Việt Nam",
	    "Các đối tượng là người lao động, thân nhân người lao động đang làm việc tại các doanh nghiệp (bao gồm cả doanh nghiệp trong khu công nghiệp, khu chế xuất, doanh nghiệp kinh doanh vận tải, tín dụng, du lịch...), cơ sở kinh doanh dịch vụ thiết yếu như các cơ sở lưu trú, ăn uống, ngân hàng, chăm sóc sức khỏe, dược, vật tư y tế...cơ sở bán lẻ, bán buôn, chợ, công trình xây dựng, người dân ở vùng, khu du lịch",
	    "Các chức sắc, chức việc các tôn giáo",
	    "Người lao động tự do",
	    "Các đối tượng khác theo Quyết định của Bộ trưởng Bộ Y tế hoặc Chủ tịch Ủy ban nhân dân tỉnh, thành phố và đề xuất của các đơn vị viện trợ vắc xin cho Bộ Y tế"
    ],
    "vaccineType": [
        "Astra Zecera",
        "Moderna",
        "Pfizer",
        "Sputnik V",
        "Vero Cell"
    ]
}
